_________________________$$$$$$$________________
________________________$$$$$$$$$$______________
________________________$$$$$$$$$$$_____________
_________________________$$$$$$$$$$$$$$_________
__________________________$$$$$$$$$$$___________
_____________________________$$$$$$$$$$$$$______
__________________________$$$$$$$$$$$___________
_______________________*$$$$$$$$$$$$$$$$________
________________$$$_____$$$$$$$$$$$$$$$_________
______________$$$$$$$$_____$$$$$$__$$$$$________
_____________$$$$$$$$$$_____$$$$____$$$$$_______
___________$$$$$$_$$$$$$$$__$$$$______$$$$______
__________$$$$$_____$$$$$$$$_$$$$_______$$$_____
________$$$$$_________$$$$$$$$$$$$_______$$$____
_______$$$_____________$$$$$$$$$$$________$$$___
_____$$$________________$$$$$$$$$$________$$$$$$
__$$$$$$__________________$$$$$$$_______________
